[
    {
        "storeId": "1",
        "name": "Daniel Lincango",
        "isPrefered": true,
        "locationSummary": "Quito, Ecuador",
        "subscriptionDate": "Miembro desde Marzo del 2020",
        "salesDescription": "1 autos vendidos ",
		"salesNumber": 1,
        "avatar": "http://144.217.164.19:8000/imagenes/tu-patio/store1.jpg",
        "banner": "",
        "feedbackModel": {
            "score": 4.5,
            "scoreDetailList": [
                {
                    "index": 0,
                    "label": "5",
                    "percentage": "50",
                    "title": "Excelente"
                },
                {
                    "index": 1,
                    "label": "4",
                    "percentage": "20",
                    "title": "Bueno"
                },
                {
                    "index": 2,
                    "label": "3",
                    "percentage": "15",
                    "title": "Regular"
                },
                {
                    "index": 3,
                    "label": "2",
                    "percentage": "5",
                    "title": "Malo"
                },
                {
                    "index": 4,
                    "label": "1",
                    "percentage": "10",
                    "title": "P\u00E9simo"
                }
            ]
        }
    },
    {
        "storeId": "2",
        "name": "Alexander Araujo",
        "isPrefered": false,
        "locationSummary": "Guayaquil, Ecuador",
        "subscriptionDate": "Miembro desde Marzo del 2020",
        "salesDescription": "2 autos vendidos ",
        "avatar": "http://144.217.164.19:8000/imagenes/tu-patio/store2.jpg",
        "banner": "",
        "feedbackModel": {
            "score": 3.5,
            "scoreDetailList": [
                {
                    "index": 0,
                    "label": "5",
                    "percentage": "50",
                    "title": "Excelente"
                },
                {
                    "index": 1,
                    "label": "4",
                    "percentage": "20",
                    "title": "Bueno"
                },
                {
                    "index": 2,
                    "label": "3",
                    "percentage": "15",
                    "title": "Regular"
                },
                {
                    "index": 3,
                    "label": "2",
                    "percentage": "5",
                    "title": "Malo"
                },
                {
                    "index": 4,
                    "label": "1",
                    "percentage": "10",
                    "title": "P\u00E9simo"
                }
            ]
        }
    },
    {
        "storeId": "3",
        "name": "Esteban Cambiasso",
        "isPrefered": true,
        "locationSummary": "Quito, Ecuador",
        "subscriptionDate": "Miembro desde Marzo del 2020",
        "salesDescription": "11 autos vendidos ",
        "avatar": "http://144.217.164.19:8000/imagenes/tu-patio/store3.jpg",
        "banner": "",
        "feedbackModel": {
            "score": 5,
            "scoreDetailList": [
                {
                    "index": 0,
                    "label": "5",
                    "percentage": "50",
                    "title": "Excelente"
                },
                {
                    "index": 1,
                    "label": "4",
                    "percentage": "20",
                    "title": "Bueno"
                },
                {
                    "index": 2,
                    "label": "3",
                    "percentage": "15",
                    "title": "Regular"
                },
                {
                    "index": 3,
                    "label": "2",
                    "percentage": "5",
                    "title": "Malo"
                },
                {
                    "index": 4,
                    "label": "1",
                    "percentage": "10",
                    "title": "P\u00E9simo"
                }
            ]
        }
    },
    {
        "storeId": "4",
        "name": "Fausto Arguero",
        "isPrefered": false,
        "locationSummary": "Cuenca, Ecuador",
        "subscriptionDate": "Miembro desde Marzo del 2020",
        "salesDescription": "3 autos vendidos ",
        "avatar": "http://144.217.164.19:8000/imagenes/tu-patio/store4.jpg",
        "banner": "",
        "feedbackModel": {
            "score": 2.5,
            "scoreDetailList": [
                {
                    "index": 0,
                    "label": "5",
                    "percentage": "50",
                    "title": "Excelente"
                },
                {
                    "index": 1,
                    "label": "4",
                    "percentage": "20",
                    "title": "Bueno"
                },
                {
                    "index": 2,
                    "label": "3",
                    "percentage": "15",
                    "title": "Regular"
                },
                {
                    "index": 3,
                    "label": "2",
                    "percentage": "5",
                    "title": "Malo"
                },
                {
                    "index": 4,
                    "label": "1",
                    "percentage": "10",
                    "title": "P\u00E9simo"
                }
            ]
        }
    }
]